<?xml version="1.0" encoding="UTF-8" standalone="no"?>
<svg
   xmlns:dc="http://purl.org/dc/elements/1.1/"
   xmlns:cc="http://creativecommons.org/ns#"
   xmlns:rdf="http://www.w3.org/1999/02/22-rdf-syntax-ns#"
   xmlns:svg="http://www.w3.org/2000/svg"
   xmlns="http://www.w3.org/2000/svg"
   width="256"
   height="228.00284"
   viewBox="0 0 67.733332 60.325753"
   version="1.1"
   id="svg8">
  <defs
     id="defs2" />
  <metadata
     id="metadata5">
    <rdf:RDF>
      <cc:Work
         rdf:about="">
        <dc:format>image/svg+xml</dc:format>
        <dc:type
           rdf:resource="http://purl.org/dc/dcmitype/StillImage" />
        <dc:title></dc:title>
      </cc:Work>
    </rdf:RDF>
  </metadata>
  <g
     id="layer1"
     transform="translate(2.2426112e-7,-3.7037917)">
    <path
       style="fill:#ffffff;stroke-width:0.0908223"
       d="m 18.661587,63.894599 c -1.155292,-0.247852 -2.015515,-0.728707 -2.862403,-1.600047 -1.522092,-1.56604 -2.310359,-3.806457 -2.562796,-7.283996 -0.169075,-2.329284 0.13547,-5.841757 0.76116,-8.778545 l 0.205138,-0.962859 -1.048103,-0.342091 C 10.009227,43.900445 7.2497587,42.593554 4.9769377,41.054105 2.5243597,39.392905 0.97476067,37.622603 0.32619567,35.740991 -0.82810033,32.39215 1.0933857,29.057566 5.8951897,26.076457 c 1.832881,-1.13791 4.6061283,-2.393653 7.1195133,-3.223755 0.599426,-0.197975 1.099817,-0.363435 1.111978,-0.367688 0.01219,-0.0043 -0.0589,-0.37891 -0.15792,-0.832567 -0.964706,-4.420126 -1.09103,-9.245796 -0.318532,-12.1681649 0.497525,-1.882139 1.159357,-3.124412 2.19554,-4.121079 0.740889,-0.712632 1.195601,-0.988704 2.164147,-1.313936 0.896277,-0.300964 2.320193,-0.395584 3.381205,-0.224682 3.222484,0.519056 6.972432,2.531936 10.8135,5.804424 0.564017,0.4805279 1.166077,0.9926009 1.33791,1.1379389 l 0.312425,0.264254 0.705589,-0.631685 c 3.967047,-3.5515289 7.810593,-5.8015409 11.164548,-6.5357259 0.960675,-0.210293 2.691304,-0.213902 3.482252,-0.0072 4.734764,1.236988 6.441174,7.5607449 4.618934,17.1172259 -0.155173,0.813813 -0.266825,1.488231 -0.2481,1.498706 0.01872,0.01047 0.553464,0.191303 1.18831,0.401838 4.329382,1.435757 7.917854,3.394899 10.171315,5.553077 1.436751,1.376002 2.257016,2.652138 2.622003,4.079209 1.163177,4.54798 -3.57553,9.177702 -12.585253,12.295808 -0.69933,0.242027 -1.283162,0.474947 -1.297403,0.517601 -0.01425,0.04265 0.07598,0.584125 0.200493,1.203269 1.244648,6.189108 0.946704,11.362812 -0.831064,14.43117 -0.188119,0.32469 -0.669119,0.92113 -1.068886,1.325422 -0.788507,0.797432 -1.58862,1.265084 -2.634116,1.539595 -0.740213,0.194353 -2.505347,0.192821 -3.451243,-0.0029 -3.275629,-0.678113 -7.413097,-3.060552 -11.175317,-6.434976 l -0.789912,-0.708489 -0.238708,0.216825 c -2.842945,2.58234 -5.830449,4.679748 -8.272138,5.80754 -1.093651,0.505147 -2.731306,1.04281 -3.671825,1.205507 -0.992625,0.171712 -2.259805,0.16832 -3.082856,-0.0082 z m 2.952021,-3.173516 c 1.599308,-0.340544 3.731916,-1.374891 5.841827,-2.833374 1.250394,-0.864338 4.033704,-3.156561 4.118306,-3.39167 0.01722,-0.04785 -0.248436,-0.382548 -0.590345,-0.743769 -1.270613,-1.342385 -3.033043,-3.457573 -4.385422,-5.263185 -0.364781,-0.487033 -0.696299,-0.885516 -0.736705,-0.885516 -0.713263,0 -5.585674,-0.791205 -7.339346,-1.191799 -0.667492,-0.152478 -1.245619,-0.243006 -1.284724,-0.201175 -0.08547,0.09143 -0.485732,2.260899 -0.699109,3.789359 -0.196792,1.409669 -0.221389,5.203546 -0.04064,6.270158 0.309062,1.823885 0.814172,3.098152 1.513183,3.817381 0.798419,0.821512 1.851087,1.006625 3.602985,0.63359 z m 27.398757,-0.13286 c 1.128551,-0.48549 1.889976,-1.974885 2.296848,-4.49278 0.07197,-0.445349 0.115371,-1.499958 0.112128,-2.724668 -0.0058,-2.20113 -0.130767,-3.439388 -0.587557,-5.822866 l -0.280463,-1.463401 -0.882071,0.20846 c -1.92542,0.455034 -4.534761,0.896478 -7.508943,1.270352 -0.341701,0.04296 -0.413706,0.106206 -0.953633,0.837599 -1.222346,1.655833 -2.862257,3.643863 -4.415856,5.353252 l -0.653054,0.718541 1.016344,0.878433 c 3.419985,2.955917 6.784343,4.896739 9.322156,5.377739 0.921442,0.174643 1.931477,0.118581 2.534098,-0.14067 z M 35.660444,50.282825 c 0.432514,-0.499523 1.043345,-1.223611 1.357403,-1.609086 l 0.571015,-0.700865 -3.684887,4.55e-4 c -2.860377,3.64e-4 -3.670551,0.02509 -3.620833,0.110514 0.180425,0.309993 2.117132,2.578207 3.029393,3.547934 l 0.589412,0.626543 0.486054,-0.533648 c 0.26733,-0.29349 0.839929,-0.942331 1.272443,-1.441852 z m 1.512966,-5.494314 c 0.949092,-0.04881 2.000621,-0.114942 2.336732,-0.146952 l 0.611108,-0.05822 0.833573,-1.277039 c 1.705287,-2.612508 3.350491,-5.484932 4.63077,-8.085034 L 46.237802,33.8967 45.94528,33.234592 c -0.841473,-1.904632 -3.06053,-5.811987 -4.848406,-8.537158 -1.158272,-1.765497 -0.770053,-1.566618 -3.333118,-1.707511 -2.837204,-0.155963 -7.68612,-0.08544 -9.689782,0.14091 l -0.471325,0.05324 -0.898115,1.379191 c -1.717219,2.637039 -3.467322,5.708005 -4.664249,8.184514 l -0.567575,1.174348 0.92497,1.830155 c 1.391532,2.7533 3.165784,5.778812 4.711764,8.034653 0.476191,0.694841 0.563054,0.776662 0.890924,0.839184 1.088578,0.207586 6.44892,0.30247 9.173042,0.162381 z m -4.222611,-4.643406 c -1.396845,-0.21048 -2.5005,-0.773388 -3.53971,-1.805402 -0.790184,-0.784709 -1.269893,-1.556779 -1.608275,-2.588433 -0.305791,-0.932294 -0.347692,-2.561387 -0.08964,-3.485067 0.60468,-2.164384 2.20308,-3.817701 4.328778,-4.477503 0.570337,-0.177028 0.873273,-0.210732 1.861856,-0.207148 1.049222,0.0038 1.261591,0.03235 1.907266,0.256443 1.081376,0.375295 1.640826,0.731142 2.506669,1.594402 1.272312,1.268517 1.846532,2.659992 1.839281,4.457019 -0.0045,1.108732 -0.169831,1.835012 -0.63302,2.780452 -1.191581,2.432171 -3.920509,3.874949 -6.573208,3.475237 z m 15.526931,3.180126 c 0.672679,-0.149492 1.233528,-0.282293 1.246333,-0.295097 0.06989,-0.06989 -1.741485,-5.326186 -1.835465,-5.326186 -0.0151,0 -0.281569,0.480223 -0.592124,1.067161 -0.72566,1.371466 -1.829899,3.294042 -2.532342,4.40902 -0.3036,0.481903 -0.552001,0.892446 -0.552001,0.91232 0,0.05712 2.917966,-0.467716 4.265599,-0.767218 z m -25.118964,0.486511 c -0.476479,-0.713494 -2.427594,-4.029125 -2.937104,-4.99117 l -0.585396,-1.105332 -0.255997,0.652815 c -0.31746,0.809547 -1.388217,4.001116 -1.473285,4.391368 -0.05053,0.231782 -0.03084,0.296551 0.101796,0.335116 0.820937,0.238678 4.550472,0.946832 5.056568,0.960128 l 0.260205,0.0069 -0.166792,-0.249761 z M 15.68095,39.969671 c 0.351323,-1.07663 0.952712,-2.731865 1.336418,-3.678299 0.383709,-0.946435 0.759179,-1.88427 0.834382,-2.084079 0.135469,-0.359948 0.132775,-0.372477 -0.292428,-1.362333 -0.684796,-1.594156 -1.532089,-3.864958 -2.101055,-5.630978 -0.289679,-0.89914 -0.533118,-1.645877 -0.540973,-1.659415 -0.03186,-0.0549 -2.790165,0.939629 -3.764447,1.357301 -1.5036163,0.644595 -3.1580783,1.526729 -4.3594663,2.3244 -1.313821,0.87232 -2.804122,2.330397 -3.270718,3.199992 -0.294604,0.549054 -0.316758,0.647514 -0.316758,1.407743 0,0.713987 0.03163,0.878744 0.250049,1.302257 0.811772,1.574045 2.81016,3.230989 5.698806,4.725108 1.4287683,0.739014 2.3156073,1.11681 4.3140533,1.837795 1.284831,0.463531 1.460119,0.506522 1.513262,0.371138 0.03306,-0.08422 0.34755,-1.034 0.698875,-2.11063 z m 38.447574,1.787597 c 3.518985,-1.24892 6.225252,-2.66897 8.157028,-4.280209 1.687523,-1.407516 2.524036,-2.900308 2.275261,-4.060299 -0.178087,-0.830394 -0.613241,-1.5035 -1.636608,-2.531547 -1.874682,-1.883248 -4.930089,-3.578997 -8.894701,-4.93655 -0.669639,-0.229296 -1.227576,-0.406232 -1.239858,-0.393192 -0.01236,0.01304 -0.349473,1.004591 -0.749308,2.203444 -0.399838,1.198853 -1.019262,2.894958 -1.376498,3.769122 -0.357237,0.874164 -0.71493,1.756709 -0.794874,1.961209 l -0.145356,0.371819 0.550496,1.308391 c 0.732943,1.742017 1.642151,4.199885 2.121836,5.735974 0.224523,0.718989 0.43751,1.248807 0.502023,1.248807 0.06163,0 0.615377,-0.178637 1.230556,-0.396969 z M 21.286901,27.395628 c 0.415791,-0.749284 1.083533,-1.89159 1.483871,-2.538459 0.400339,-0.646867 0.716109,-1.187903 0.701711,-1.202301 -0.08539,-0.08537 -5.304289,0.919983 -5.433055,1.046613 -0.06804,0.0669 0.761681,2.649871 1.382007,4.302295 l 0.399137,1.063219 0.355173,-0.654519 c 0.195345,-0.359984 0.695365,-1.267566 1.111156,-2.016848 z m 27.094572,1.294701 c 0.489865,-1.339436 1.279991,-3.768408 1.279991,-3.934895 0,-0.145613 -5.295389,-1.222324 -5.4164,-1.101313 -0.02132,0.02132 0.246578,0.488327 0.595327,1.037797 0.743275,1.171059 2.225594,3.740651 2.691027,4.66488 0.178893,0.355233 0.341165,0.629972 0.360604,0.610535 0.01945,-0.01945 0.239691,-0.594092 0.489451,-1.277004 z M 19.0114,21.222803 c 1.711425,-0.370718 3.851863,-0.730467 5.627875,-0.945888 l 1.270841,-0.154143 0.537488,-0.723038 c 1.35221,-1.819016 3.250754,-4.106351 4.531474,-5.459447 l 0.617333,-0.652219 -0.435689,-0.405813 C 28.006207,9.9440411 24.075826,7.5840151 21.422593,7.0349251 c -0.935677,-0.193641 -2.282597,-0.131746 -2.780996,0.127797 -0.83612,0.435406 -1.559736,1.58245 -1.935185,3.0675619 -0.32267,1.276349 -0.411805,2.19928 -0.403483,4.177778 0.0088,2.069294 0.169058,3.593646 0.624686,5.93849 0.23559,1.212432 0.263533,1.291399 0.439884,1.243117 0.10358,-0.02835 0.843328,-0.19344 1.643901,-0.366856 z m 31.775256,-1.00213 c 0.468723,-2.490352 0.545123,-3.30377 0.550219,-5.858034 0.0039,-1.976448 -0.02463,-2.552941 -0.159807,-3.224187 -0.240042,-1.1920599 -0.408465,-1.7358839 -0.767278,-2.4774959 -0.755449,-1.561402 -2.016617,-2.09574 -4.03265,-1.708573 -1.960093,0.376424 -4.656275,1.76282 -7.228216,3.7168019 -0.898115,0.682325 -2.876866,2.354683 -2.976138,2.515308 -0.02981,0.04825 0.382404,0.568061 0.91604,1.155156 1.194099,1.313723 2.588708,2.996405 3.800914,4.586048 0.839789,1.101265 0.945295,1.206448 1.234799,1.23101 1.479239,0.125498 6.064309,0.904569 7.809383,1.326917 0.274737,0.06649 0.525145,0.09562 0.556465,0.06472 0.03132,-0.03089 0.16463,-0.628348 0.29626,-1.327678 z M 37.00204,19.085394 c -0.490014,-0.601774 -1.814962,-2.118685 -2.80413,-3.2104 l -0.341657,-0.377076 -0.719986,0.74886 c -0.667809,0.694588 -2.446352,2.771978 -2.819049,3.292728 l -0.162502,0.227055 h 3.700993 3.700994 z"
       id="path847" />
  </g>
</svg>
